[

       {"option": "augmented mutual aid"},
      {"option": "enhancing the commons"},
       {"option": "upgrading the formula"},
      {"option": "knowledge commons"},
     {"option": "holding space, creating frames"},
       {"option": "Gardening the sociotechnical commons"},
     {"option": "Herding cats for a better future"},
      {"option": "feng shui for the socio-technical commons"}
]